…
## NOTE: No need to edit! We'll cover how to
## do this calculation in a later exercise.
df_prop <-
  df_titanic %>%
  group_by(Class, Sex, Age) %>%
  mutate(
    Total = sum(n),
    Prop = n / Total
  ) %>%
  filter(!is.nan(Prop)) %>% # there are no crew children lets ignore those groups
  ungroup()
df_prop
```

    ## # A tibble: 28 × 7
    ##    Class Sex    Age   Survived     n Total  Prop
    ##    <chr> <chr>  <chr> <chr>    <dbl> <dbl> <dbl>
    ##  1 1st   Male   Child No           0     5 0    
    ##  2 2nd   Male   Child No           0    11 0    
    ##  3 3rd   Male   Child No          35    48 0.729
    ##  4 1st   Female Child No           0     1 0    
    ##  5 2nd   Female Child No           0    13 0    
    ##  6 3rd   Female Child No          17    31 0.548
    ##  7 1st   Male   Adult No         118   175 0.674
    ##  8 2nd   Male   Adult No         154   168 0.917
    ##  9 3rd   Male   Adult No         387   462 0.838
    ## 10 Crew  Male   Adult No         670   862 0.777
    ## # … with 18 more rows
…
