…
``` r
gapminder %>%
  filter(year == 2007) %>%
  arrange(lifeExp)
```

    ## # A tibble: 142 × 6
    ##    country                  continent  year lifeExp      pop gdpPercap
    ##    <fct>                    <fct>     <int>   <dbl>    <int>     <dbl>
    ##  1 Swaziland                Africa     2007    39.6  1133066     4513.
    ##  2 Mozambique               Africa     2007    42.1 19951656      824.
    ##  3 Zambia                   Africa     2007    42.4 11746035     1271.
    ##  4 Sierra Leone             Africa     2007    42.6  6144562      863.
    ##  5 Lesotho                  Africa     2007    42.6  2012649     1569.
    ##  6 Angola                   Africa     2007    42.7 12420476     4797.
    ##  7 Zimbabwe                 Africa     2007    43.5 12311143      470.
    ##  8 Afghanistan              Asia       2007    43.8 31889923      975.
    ##  9 Central African Republic Africa     2007    44.7  4369038      706.
    ## 10 Liberia                  Africa     2007    45.7  3193942      415.
    ## # … with 132 more rows
…
