…
### **q7** Find the top 10 counties in terms of `cases_per100k`, and the top 10 in terms of `deaths_per100k`. Report the population of each county along with the per-100,000 counts. Compare the counts against the mean values you found in q6. Note any observations.

``` r
## TASK: Find the top 10 max cases_per100k counties; report populations as well
df_counts %>%
  group_by(county) %>%
  select(
    county,
    cases_per100k,
    population
  ) %>%
  arrange(desc(cases_per100k))
```

    ## # A tibble: 3,258 × 3
    ## # Groups:   county [1,932]
    ##    county                   cases_per100k population
    ##    <chr>                            <dbl>      <int>
    ##  1 Loving                         192157.        102
    ##  2 Chattahoochee                   69527.      10767
    ##  3 Nome Census Area                62922.       9925
    ##  4 Northwest Arctic Borough        62542.       7734
    ##  5 Crowley                         59449.       5630
    ##  6 Bethel Census Area              57439.      18040
    ##  7 Dewey                           54317.       5779
    ##  8 Dimmit                          54019.      10663
    ##  9 Jim Hogg                        50133.       5282
    ## 10 Kusilvak Census Area            49817.       8198
    ## # … with 3,248 more rows

``` r
## TASK: Find the top 10 deaths_per100k counties; report populations as well
df_counts %>%
  group_by(county) %>%
  select(
    county,
    deaths_per100k,
    population
  ) %>%
  arrange(desc(deaths_per100k))
```

    ## # A tibble: 3,258 × 3
    ## # Groups:   county [1,932]
    ##    county            deaths_per100k population
    ##    <chr>                      <dbl>      <int>
    ##  1 McMullen                   1360.        662
    ##  2 Galax city                 1175.       6638
    ##  3 Motley                     1125.       1156
    ##  4 Hancock                    1054.       8535
    ##  5 Emporia city               1022.       5381
    ##  6 Towns                      1016.      11417
    ##  7 Jerauld                     986.       2029
    ##  8 Loving                      980.        102
    ##  9 Robertson                   980.       2143
    ## 10 Martinsville city           946.      13101
    ## # … with 3,248 more rows
…
df_roc
```

    ## # A tibble: 1,489,084 × 17
    ## # Groups:   county [1,932]
    ##    date       county      state fips  cases deaths popul…¹ cases…² death…³   day
    ##    <date>     <chr>       <chr> <chr> <dbl>  <dbl>   <int>   <dbl>   <dbl> <dbl>
    ##  1 2020-01-22 Snohomish   Wash… 53061     1      0  7.87e5 0.127         0 18283
    ##  2 2020-01-23 Snohomish   Wash… 53061     1      0  7.87e5 0.127         0 18284
    ##  3 2020-01-24 Snohomish   Wash… 53061     1      0  7.87e5 0.127         0 18285
    ##  4 2020-01-25 Cook        Illi… 17031     1      0  5.22e6 0.0191        0 18286
    ##  5 2020-01-25 Snohomish   Wash… 53061     1      0  7.87e5 0.127         0 18286
    ##  6 2020-01-26 Orange      Cali… 06059     1      0  3.16e6 0.0316        0 18287
    ##  7 2020-01-26 Cook        Illi… 17031     1      0  5.22e6 0.0191        0 18287
    ##  8 2020-01-26 Snohomish   Wash… 53061     1      0  7.87e5 0.127         0 18287
    ##  9 2020-01-27 Maricopa    Ariz… 04013     1      0  4.25e6 0.0235        0 18288
    ## 10 2020-01-27 Los Angeles Cali… 06037     1      0  1.01e7 0.00990       0 18288
    ## # … with 1,489,074 more rows, 7 more variables: dx <dbl>, dy <dbl>,
    ## #   dy_smooth <dbl>, dynorm <dbl>, dynorm_smooth <dbl>, dyrate <dbl>,
    ## #   dyrate_smooth <dbl>, and abbreviated variable names ¹​population,
    ## #   ²​cases_per100k, ³​deaths_per100k
…
